[
    {
		"prompt": [
            "a name",
            "a thing",
            "a feeling",
            "another feeling",
            "some things"],

		"story": "Once upon a time a %s ate a %s and felt very %s. It was a %s day for all good %s."
		},

		{
		"prompt": [
            "a noun",
            "a thing",
            "a place",
            "a feeling",
            "some things"],

		"story": "I used to be a(n) %s like you, until I took an %s to the knee. Now I'm stuck here in %s feeling %s. I'm also sworn to carry your %s"
		},

		]
